Knot_Tying_B003,1617,11,0,1,2,2,2
Knot_Tying_C003,1075,18,1,3,3,3,3
Knot_Tying_D003,1405,12,2,1,2,2,2
Knot_Tying_E003,1416,22,2,3,4,3,4
Knot_Tying_F003,2724,10,1,2,1,1,2
Knot_Tying_G003,2426,10,0,1,2,1,2
Knot_Tying_H003,1637,12,0,3,2,1,3
Knot_Tying_I003,2066,8,0,2,1,1,2
