Needle_Passing_B004,2891,19,0,3,3,3,4,3,3
Needle_Passing_C004,2444,12,1,1,2,1,3,2,3
Needle_Passing_D004,2712,12,2,2,2,1,3,2,2
Needle_Passing_E004,3378,14,2,2,3,1,3,2,3
Needle_Passing_F004,1789,24,1,4,4,4,4,4,4
Needle_Passing_H004,3664,20,0,3,3,3,4,3,4
Needle_Passing_I004,3989,18,0,2,3,2,4,3,4
